Tidying Data for Analysis
…
This now follows the tidy format that bwsTools requires. One column indicates the unique identifier for the respondent, another the trial (or block) that the choices were presented in, the response (as 1 if best, -1 if worst, and 0 as unselected), and the name of the item.

dat1_i
#> # A tibble: 36 x 4
#>      pid block  resp label        
#>    <int> <chr> <dbl> <chr>        
#>  1     1 q1        1 Steak N Shake
#>  2     2 q1        1 Steak N Shake
#>  3     3 q1        1 Steak N Shake
#>  4     1 q1        0 Shake Shack  
#>  5     2 q1        0 Shake Shack  
#>  6     3 q1       -1 Shake Shack  
#>  7     1 q1       -1 Whataburger  
#>  8     2 q1       -1 Whataburger  
#>  9     3 q1        0 Whataburger  
#> 10     1 q2       -1 Culvers      
#> # … with 26 more rows
…
Now, the data are in the correct format for using the bwsTools individual scoring functions.

dat2_i
#> # A tibble: 36 x 4
#>      pid block t                 y
#>    <int> <chr> <chr>         <dbl>
#>  1     1 q1    Steak N Shake     1
#>  2     1 q1    Shake Shack       0
#>  3     1 q1    Whataburger      -1
#>  4     1 q2    Culvers          -1
#>  5     1 q2    Shake Shack       1
#>  6     1 q2    Whataburger       0
#>  7     1 q3    Steak N Shake     0
#>  8     1 q3    Culvers           1
#>  9     1 q3    Shake Shack      -1
#> 10     1 q4    Steak N Shake     0
#> # … with 26 more rows
…
